%!PS-Adobe-3.0
%%Creator: graphviz version 2.40.1 (20161225.0304)
%%Title: classes
%%Pages: (atend)
%%BoundingBox: (atend)
%%EndComments
save
%%BeginProlog
/DotDict 200 dict def
DotDict begin

/setupLatin1 {
mark
/EncodingVector 256 array def
 EncodingVector 0

ISOLatin1Encoding 0 255 getinterval putinterval
EncodingVector 45 /hyphen put

% Set up ISO Latin 1 character encoding
/starnetISO {
        dup dup findfont dup length dict begin
        { 1 index /FID ne { def }{ pop pop } ifelse
        } forall
        /Encoding EncodingVector def
        currentdict end definefont
} def
/Times-Roman starnetISO def
/Times-Italic starnetISO def
/Times-Bold starnetISO def
/Times-BoldItalic starnetISO def
/Helvetica starnetISO def
/Helvetica-Oblique starnetISO def
/Helvetica-Bold starnetISO def
/Helvetica-BoldOblique starnetISO def
/Courier starnetISO def
/Courier-Oblique starnetISO def
/Courier-Bold starnetISO def
/Courier-BoldOblique starnetISO def
cleartomark
} bind def

%%BeginResource: procset graphviz 0 0
/coord-font-family /Times-Roman def
/default-font-family /Times-Roman def
/coordfont coord-font-family findfont 8 scalefont def

/InvScaleFactor 1.0 def
/set_scale {
       dup 1 exch div /InvScaleFactor exch def
       scale
} bind def

% styles
/solid { [] 0 setdash } bind def
/dashed { [9 InvScaleFactor mul dup ] 0 setdash } bind def
/dotted { [1 InvScaleFactor mul 6 InvScaleFactor mul] 0 setdash } bind def
/invis {/fill {newpath} def /stroke {newpath} def /show {pop newpath} def} bind def
/bold { 2 setlinewidth } bind def
/filled { } bind def
/unfilled { } bind def
/rounded { } bind def
/diagonals { } bind def
/tapered { } bind def

% hooks for setting color 
/nodecolor { sethsbcolor } bind def
/edgecolor { sethsbcolor } bind def
/graphcolor { sethsbcolor } bind def
/nopcolor {pop pop pop} bind def

/beginpage {	% i j npages
	/npages exch def
	/j exch def
	/i exch def
	/str 10 string def
	npages 1 gt {
		gsave
			coordfont setfont
			0 0 moveto
			(\() show i str cvs show (,) show j str cvs show (\)) show
		grestore
	} if
} bind def

/set_font {
	findfont exch
	scalefont setfont
} def

% draw text fitted to its expected width
/alignedtext {			% width text
	/text exch def
	/width exch def
	gsave
		width 0 gt {
			[] 0 setdash
			text stringwidth pop width exch sub text length div 0 text ashow
		} if
	grestore
} def

/boxprim {				% xcorner ycorner xsize ysize
		4 2 roll
		moveto
		2 copy
		exch 0 rlineto
		0 exch rlineto
		pop neg 0 rlineto
		closepath
} bind def

/ellipse_path {
	/ry exch def
	/rx exch def
	/y exch def
	/x exch def
	matrix currentmatrix
	newpath
	x y translate
	rx ry scale
	0 0 1 0 360 arc
	setmatrix
} bind def

/endpage { showpage } bind def
/showpage { } def

/layercolorseq
	[	% layer color sequence - darkest to lightest
		[0 0 0]
		[.2 .8 .8]
		[.4 .8 .8]
		[.6 .8 .8]
		[.8 .8 .8]
	]
def

/layerlen layercolorseq length def

/setlayer {/maxlayer exch def /curlayer exch def
	layercolorseq curlayer 1 sub layerlen mod get
	aload pop sethsbcolor
	/nodecolor {nopcolor} def
	/edgecolor {nopcolor} def
	/graphcolor {nopcolor} def
} bind def

/onlayer { curlayer ne {invis} if } def

/onlayers {
	/myupper exch def
	/mylower exch def
	curlayer mylower lt
	curlayer myupper gt
	or
	{invis} if
} def

/curlayer 0 def

%%EndResource
%%EndProlog
%%BeginSetup
14 default-font-family set_font
% /arrowlength 10 def
% /arrowwidth 5 def

% make sure pdfmark is harmless for PS-interpreters other than Distiller
/pdfmark where {pop} {userdict /pdfmark /cleartomark load put} ifelse
% make '<<' and '>>' safe on PS Level 1 devices
/languagelevel where {pop languagelevel}{1} ifelse
2 lt {
    userdict (<<) cvn ([) cvn load put
    userdict (>>) cvn ([) cvn load put
} if

%%EndSetup
setupLatin1
%%Page: 1 1
%%PageBoundingBox: 36 36 400 234
%%PageOrientation: Portrait
0 0 1 beginpage
gsave
36 36 364 198 boxprim clip newpath
1 1 set_scale 0 rotate 40 40 translate
% 0
gsave
1 setlinewidth
0 0 0 nodecolor
newpath 0 30.5 moveto
0 159.5 lineto
137 159.5 lineto
137 30.5 lineto
closepath stroke
0 0 0 nodecolor
14 /Times-Roman set_font
30.5 144.3 moveto 76 (OpkgPackage) alignedtext
1 setlinewidth
0 0 0 nodecolor
newpath 0 136.5 moveto
137 136.5 lineto
stroke
0 0 0 nodecolor
14 /Times-Roman set_font
8 121.3 moveto 24 (arch) alignedtext
0 0 0 nodecolor
14 /Times-Roman set_font
8 106.3 moveto 68 (delete : bool) alignedtext
0 0 0 nodecolor
14 /Times-Roman set_font
8 91.3 moveto 121 (extension : NoneType) alignedtext
0 0 0 nodecolor
14 /Times-Roman set_font
8 76.3 moveto 31 (name) alignedtext
0 0 0 nodecolor
14 /Times-Roman set_font
8 61.3 moveto 40 (version) alignedtext
1 setlinewidth
0 0 0 nodecolor
newpath 0 53.5 moveto
137 53.5 lineto
stroke
0 0 0 nodecolor
14 /Times-Roman set_font
66.5 38.3 moveto 4 ( ) alignedtext
grestore
% 1
gsave
1 setlinewidth
0 0 0 nodecolor
newpath 155.5 .5 moveto
155.5 189.5 lineto
355.5 189.5 lineto
355.5 .5 lineto
closepath stroke
0 0 0 nodecolor
14 /Times-Roman set_font
238.5 174.3 moveto 34 (Orepo) alignedtext
1 setlinewidth
0 0 0 nodecolor
newpath 155.5 166.5 moveto
355.5 166.5 lineto
stroke
0 0 0 nodecolor
14 /Times-Roman set_font
163.5 151.3 moveto 23 (args) alignedtext
0 0 0 nodecolor
14 /Times-Roman set_font
163.5 136.3 moveto 125 (tecos_dir : str, unicode) alignedtext
0 0 0 nodecolor
14 /Times-Roman set_font
163.5 121.3 moveto 184 (tecos_incoming_dir : str, unicode) alignedtext
1 setlinewidth
0 0 0 nodecolor
newpath 155.5 113.5 moveto
355.5 113.5 lineto
stroke
0 0 0 nodecolor
14 /Times-Roman set_font
163.5 98.3 moveto 79 (create_index\(\)) alignedtext
0 0 0 nodecolor
14 /Times-Roman set_font
163.5 83.3 moveto 118 (delete_old_versions\(\)) alignedtext
0 0 0 nodecolor
14 /Times-Roman set_font
163.5 68.3 moveto 77 (package_list\(\)) alignedtext
0 0 0 nodecolor
14 /Times-Roman set_font
163.5 53.3 moveto 102 (processincoming\(\)) alignedtext
0 0 0 nodecolor
14 /Times-Roman set_font
163.5 38.3 moveto 51 (remove\(\)) alignedtext
0 0 0 nodecolor
14 /Times-Roman set_font
163.5 23.3 moveto 28 (run\(\)) alignedtext
0 0 0 nodecolor
14 /Times-Roman set_font
163.5 8.3 moveto 72 (split_triplet\(\)) alignedtext
grestore
endpage
showpage
grestore
%%PageTrailer
%%EndPage: 1
%%Trailer
%%Pages: 1
%%BoundingBox: 36 36 400 234
end
restore
%%EOF
